Extracting insights from FOMC statements
…
# Rank most frequent words by year
f_text<-report.words%>% group_by(year,word) %>% summarize(total=sum(frequency))%>%arrange(year,desc(total),word)%>% mutate(rank=row_number())%>%ungroup() %>% arrange(rank,year)
# Select the top 10 ranked words per year
topWords <- f_text %>% filter(rank<11)%>%arrange(year,rank)
print(topWords)

## # A tibble: 130 x 4
##    year  word      total  rank
##    <chr> <chr>     <int> <int>
##  1 2007  inflation    34     1
##  2 2007  federal      31     2
##  3 2007  growth       23     3
##  4 2007  economic     20     4
##  5 2007  action       19     5
##  6 2007  moderate     19     6
##  7 2007  policy       19     7
##  8 2007  chairman     18     8
##  9 2007  rate         13     9
## 10 2007  governors    12    10
## # ... with 120 more rows
…
